[
  {
    "roomTypeLabel": "Standard",
    "bedTypeLabel": "Single",
    "boardCodeDescription": "Bed and breakfast",
    "totalPrice": "260"
  },
  {
    "roomTypeLabel": "Standard",
    "bedTypeLabel": "Single",
    "boardCodeDescription": "Full board",
    "totalPrice": "470"
  },
  {
    "roomTypeLabel": "Standard",
    "bedTypeLabel": "Double",
    "boardCodeDescription": "Bed and breakfast",
    "totalPrice": "550"
  },

  {
    "roomTypeLabel": "Executive",
    "bedTypeLabel": "Single",
    "boardCodeDescription": "Bed and breakfast",
    "totalPrice": "300"
  },
  {
    "roomTypeLabel": "Executive",
    "bedTypeLabel": "Double",
    "boardCodeDescription": "Bed and breakfast",
    "totalPrice": "340"
  },
  {
    "roomTypeLabel": "Executive",
    "bedTypeLabel": "Twin",
    "boardCodeDescription": "Bed and breakfast",
    "totalPrice": "420"
  },
  {
    "roomTypeLabel": "Executive",
    "bedTypeLabel": "Twin",
    "boardCodeDescription": "Full board",
    "totalPrice": "550"
  },

  {
    "roomTypeLabel": "Presidential",
    "bedTypeLabel": "Single",
    "boardCodeDescription": "Bed and breakfast",
    "totalPrice": "400"
  },
  {
    "roomTypeLabel": "Presidential",
    "bedTypeLabel": "Single",
    "boardCodeDescription": "Full board",
    "totalPrice": "550"
  },
  {
    "roomTypeLabel": "Presidential",
    "bedTypeLabel": "Double",
    "boardCodeDescription": "Bed and breakfast",
    "totalPrice": "600"
  }
]